%YAML 1.1
%TAG !u! tag:unity3d.com,2011:
--- !u!74 &7400000
AnimationClip:
  m_ObjectHideFlags: 0
  m_PrefabParentObject: {fileID: 0}
  m_PrefabInternal: {fileID: 0}
  m_Name: Red_Explosion
  serializedVersion: 6
  m_Legacy: 0
  m_Compressed: 0
  m_UseHighQualityCurve: 1
  m_RotationCurves: []
  m_CompressedRotationCurves: []
  m_EulerCurves: []
  m_PositionCurves: []
  m_ScaleCurves: []
  m_FloatCurves: []
  m_PPtrCurves:
  - curve:
    - time: 0
      value: {fileID: 21300000, guid: 8537a54f3f3d2014f858297bfb0f6914, type: 3}
    - time: 0.033333335
      value: {fileID: 21300000, guid: f9874d498d9d8ee418b29b511ffe17de, type: 3}
    - time: 0.06666667
      value: {fileID: 21300000, guid: dde324f37975a0245b494f2a991c15c7, type: 3}
    - time: 0.1
      value: {fileID: 21300000, guid: eecd1403fe3e8b64eabf529b47fc4202, type: 3}
    - time: 0.13333334
      value: {fileID: 21300000, guid: 002c8bbb627514c4ca6faf4f6a38bdd6, type: 3}
    - time: 0.16666667
      value: {fileID: 21300000, guid: 3ab2d451eab1e8940921cf6e1a7d00f2, type: 3}
    - time: 0.2
      value: {fileID: 21300000, guid: 7a387db3da632a542b70a3ec6292d0ab, type: 3}
    - time: 0.23333333
      value: {fileID: 21300000, guid: 207576e338ec1644fa99fac41e702ec1, type: 3}
    - time: 0.26666668
      value: {fileID: 21300000, guid: 662ed812dbe92f3429242c619c615876, type: 3}
    - time: 0.3
      value: {fileID: 21300000, guid: 919e9f4008f340d40b79320553978d39, type: 3}
    - time: 0.33333334
      value: {fileID: 21300000, guid: c05ecedf5baf4034dbe07db0d977b26c, type: 3}
    - time: 0.36666667
      value: {fileID: 21300000, guid: 99f3316aa1d40054497a0dc0134abbe0, type: 3}
    - time: 0.4
      value: {fileID: 21300000, guid: 682f36d25cbec314fb4a4aaf871f1fb6, type: 3}
    - time: 0.43333334
      value: {fileID: 21300000, guid: 2aeda11d75b90864b9b8f9e95be51bd3, type: 3}
    - time: 0.46666667
      value: {fileID: 21300000, guid: 9360829437993e244bde55e74f7d61b1, type: 3}
    - time: 0.5
      value: {fileID: 21300000, guid: afde43846a422cc4ea7388f030156f49, type: 3}
    - time: 0.53333336
      value: {fileID: 21300000, guid: c04dc4aa2b9516c459a8e1bcb911d235, type: 3}
    attribute: m_Sprite
    path: 
    classID: 212
    script: {fileID: 0}
  m_SampleRate: 30
  m_WrapMode: 0
  m_Bounds:
    m_Center: {x: 0, y: 0, z: 0}
    m_Extent: {x: 0, y: 0, z: 0}
  m_ClipBindingConstant:
    genericBindings:
    - path: 0
      attribute: 0
      script: {fileID: 0}
      classID: 212
      customType: 23
      isPPtrCurve: 1
    pptrCurveMapping:
    - {fileID: 21300000, guid: 8537a54f3f3d2014f858297bfb0f6914, type: 3}
    - {fileID: 21300000, guid: f9874d498d9d8ee418b29b511ffe17de, type: 3}
    - {fileID: 21300000, guid: dde324f37975a0245b494f2a991c15c7, type: 3}
    - {fileID: 21300000, guid: eecd1403fe3e8b64eabf529b47fc4202, type: 3}
    - {fileID: 21300000, guid: 002c8bbb627514c4ca6faf4f6a38bdd6, type: 3}
    - {fileID: 21300000, guid: 3ab2d451eab1e8940921cf6e1a7d00f2, type: 3}
    - {fileID: 21300000, guid: 7a387db3da632a542b70a3ec6292d0ab, type: 3}
    - {fileID: 21300000, guid: 207576e338ec1644fa99fac41e702ec1, type: 3}
    - {fileID: 21300000, guid: 662ed812dbe92f3429242c619c615876, type: 3}
    - {fileID: 21300000, guid: 919e9f4008f340d40b79320553978d39, type: 3}
    - {fileID: 21300000, guid: c05ecedf5baf4034dbe07db0d977b26c, type: 3}
    - {fileID: 21300000, guid: 99f3316aa1d40054497a0dc0134abbe0, type: 3}
    - {fileID: 21300000, guid: 682f36d25cbec314fb4a4aaf871f1fb6, type: 3}
    - {fileID: 21300000, guid: 2aeda11d75b90864b9b8f9e95be51bd3, type: 3}
    - {fileID: 21300000, guid: 9360829437993e244bde55e74f7d61b1, type: 3}
    - {fileID: 21300000, guid: afde43846a422cc4ea7388f030156f49, type: 3}
    - {fileID: 21300000, guid: c04dc4aa2b9516c459a8e1bcb911d235, type: 3}
  m_AnimationClipSettings:
    serializedVersion: 2
    m_AdditiveReferencePoseClip: {fileID: 0}
    m_AdditiveReferencePoseTime: 0
    m_StartTime: 0
    m_StopTime: 0.5666667
    m_OrientationOffsetY: 0
    m_Level: 0
    m_CycleOffset: 0
    m_HasAdditiveReferencePose: 0
    m_LoopTime: 0
    m_LoopBlend: 0
    m_LoopBlendOrientation: 0
    m_LoopBlendPositionY: 0
    m_LoopBlendPositionXZ: 0
    m_KeepOriginalOrientation: 0
    m_KeepOriginalPositionY: 1
    m_KeepOriginalPositionXZ: 0
    m_HeightFromFeet: 0
    m_Mirror: 0
  m_EditorCurves: []
  m_EulerEditorCurves: []
  m_HasGenericRootTransform: 0
  m_HasMotionFloatCurves: 0
  m_GenerateMotionCurves: 0
  m_Events: []
