%YAML 1.1
%TAG !u! tag:unity3d.com,2011:
--- !u!74 &7400000
AnimationClip:
  m_ObjectHideFlags: 0
  m_PrefabParentObject: {fileID: 0}
  m_PrefabInternal: {fileID: 0}
  m_Name: RockIdle
  serializedVersion: 6
  m_Legacy: 0
  m_Compressed: 0
  m_UseHighQualityCurve: 1
  m_RotationCurves: []
  m_CompressedRotationCurves: []
  m_EulerCurves: []
  m_PositionCurves: []
  m_ScaleCurves: []
  m_FloatCurves: []
  m_PPtrCurves:
  - curve:
    - time: 0
      value: {fileID: 21300000, guid: ed6273c0a89538f4c91a4e4269ced8a6, type: 3}
    - time: 0.125
      value: {fileID: 21300002, guid: ed6273c0a89538f4c91a4e4269ced8a6, type: 3}
    - time: 0.25
      value: {fileID: 21300004, guid: ed6273c0a89538f4c91a4e4269ced8a6, type: 3}
    - time: 0.375
      value: {fileID: 21300006, guid: ed6273c0a89538f4c91a4e4269ced8a6, type: 3}
    - time: 0.5
      value: {fileID: 21300008, guid: ed6273c0a89538f4c91a4e4269ced8a6, type: 3}
    - time: 0.625
      value: {fileID: 21300010, guid: ed6273c0a89538f4c91a4e4269ced8a6, type: 3}
    - time: 0.75
      value: {fileID: 21300012, guid: ed6273c0a89538f4c91a4e4269ced8a6, type: 3}
    - time: 0.875
      value: {fileID: 21300014, guid: ed6273c0a89538f4c91a4e4269ced8a6, type: 3}
    - time: 1
      value: {fileID: 21300016, guid: ed6273c0a89538f4c91a4e4269ced8a6, type: 3}
    - time: 1.125
      value: {fileID: 21300018, guid: ed6273c0a89538f4c91a4e4269ced8a6, type: 3}
    - time: 1.25
      value: {fileID: 21300020, guid: ed6273c0a89538f4c91a4e4269ced8a6, type: 3}
    - time: 1.375
      value: {fileID: 21300022, guid: ed6273c0a89538f4c91a4e4269ced8a6, type: 3}
    - time: 1.5
      value: {fileID: 21300024, guid: ed6273c0a89538f4c91a4e4269ced8a6, type: 3}
    - time: 1.625
      value: {fileID: 21300026, guid: ed6273c0a89538f4c91a4e4269ced8a6, type: 3}
    - time: 1.75
      value: {fileID: 21300028, guid: ed6273c0a89538f4c91a4e4269ced8a6, type: 3}
    - time: 1.875
      value: {fileID: 21300030, guid: ed6273c0a89538f4c91a4e4269ced8a6, type: 3}
    - time: 2
      value: {fileID: 21300032, guid: ed6273c0a89538f4c91a4e4269ced8a6, type: 3}
    - time: 2.125
      value: {fileID: 21300034, guid: ed6273c0a89538f4c91a4e4269ced8a6, type: 3}
    - time: 2.25
      value: {fileID: 21300036, guid: ed6273c0a89538f4c91a4e4269ced8a6, type: 3}
    - time: 2.375
      value: {fileID: 21300038, guid: ed6273c0a89538f4c91a4e4269ced8a6, type: 3}
    attribute: m_Sprite
    path: 
    classID: 212
    script: {fileID: 0}
  m_SampleRate: 8
  m_WrapMode: 0
  m_Bounds:
    m_Center: {x: 0, y: 0, z: 0}
    m_Extent: {x: 0, y: 0, z: 0}
  m_ClipBindingConstant:
    genericBindings:
    - path: 0
      attribute: 0
      script: {fileID: 0}
      classID: 212
      customType: 23
      isPPtrCurve: 1
    pptrCurveMapping:
    - {fileID: 21300000, guid: ed6273c0a89538f4c91a4e4269ced8a6, type: 3}
    - {fileID: 21300002, guid: ed6273c0a89538f4c91a4e4269ced8a6, type: 3}
    - {fileID: 21300004, guid: ed6273c0a89538f4c91a4e4269ced8a6, type: 3}
    - {fileID: 21300006, guid: ed6273c0a89538f4c91a4e4269ced8a6, type: 3}
    - {fileID: 21300008, guid: ed6273c0a89538f4c91a4e4269ced8a6, type: 3}
    - {fileID: 21300010, guid: ed6273c0a89538f4c91a4e4269ced8a6, type: 3}
    - {fileID: 21300012, guid: ed6273c0a89538f4c91a4e4269ced8a6, type: 3}
    - {fileID: 21300014, guid: ed6273c0a89538f4c91a4e4269ced8a6, type: 3}
    - {fileID: 21300016, guid: ed6273c0a89538f4c91a4e4269ced8a6, type: 3}
    - {fileID: 21300018, guid: ed6273c0a89538f4c91a4e4269ced8a6, type: 3}
    - {fileID: 21300020, guid: ed6273c0a89538f4c91a4e4269ced8a6, type: 3}
    - {fileID: 21300022, guid: ed6273c0a89538f4c91a4e4269ced8a6, type: 3}
    - {fileID: 21300024, guid: ed6273c0a89538f4c91a4e4269ced8a6, type: 3}
    - {fileID: 21300026, guid: ed6273c0a89538f4c91a4e4269ced8a6, type: 3}
    - {fileID: 21300028, guid: ed6273c0a89538f4c91a4e4269ced8a6, type: 3}
    - {fileID: 21300030, guid: ed6273c0a89538f4c91a4e4269ced8a6, type: 3}
    - {fileID: 21300032, guid: ed6273c0a89538f4c91a4e4269ced8a6, type: 3}
    - {fileID: 21300034, guid: ed6273c0a89538f4c91a4e4269ced8a6, type: 3}
    - {fileID: 21300036, guid: ed6273c0a89538f4c91a4e4269ced8a6, type: 3}
    - {fileID: 21300038, guid: ed6273c0a89538f4c91a4e4269ced8a6, type: 3}
  m_AnimationClipSettings:
    serializedVersion: 2
    m_AdditiveReferencePoseClip: {fileID: 0}
    m_AdditiveReferencePoseTime: 0
    m_StartTime: 0
    m_StopTime: 2.5
    m_OrientationOffsetY: 0
    m_Level: 0
    m_CycleOffset: 0
    m_HasAdditiveReferencePose: 0
    m_LoopTime: 0
    m_LoopBlend: 0
    m_LoopBlendOrientation: 0
    m_LoopBlendPositionY: 0
    m_LoopBlendPositionXZ: 0
    m_KeepOriginalOrientation: 0
    m_KeepOriginalPositionY: 1
    m_KeepOriginalPositionXZ: 0
    m_HeightFromFeet: 0
    m_Mirror: 0
  m_EditorCurves: []
  m_EulerEditorCurves: []
  m_HasGenericRootTransform: 0
  m_HasMotionFloatCurves: 0
  m_GenerateMotionCurves: 0
  m_Events: []
